Disease mapping with CARs in NIMBLE: A case study with the Scottish lip cancer data
…
library(kableExtra)   # packages for formatting tables in rmarkdown

Import and explore the Scottish lip cancer data

Import the health data

ScotLip <- read_sf("ScotLip.shp")
ScotLip

## Simple feature collection with 56 features and 7 fields
## geometry type:  POLYGON
## dimension:      XY
## bbox:           xmin: 95631 ymin: 530297 xmax: 454570 ymax: 1203008
## CRS:            NA
## # A tibble: 56 x 8
##    CODENO DISTRICT NAME   CODE  CANCER    POP  CEXP                     geometry
##     <int>    <int> <chr>  <chr>  <int>  <int> <dbl>                    <POLYGON>
##  1   6126        1 Skye-~ w6126      9  28324  1.38 ((214091.9 841215.2, 218829~
##  2   6016        2 Banff~ w6016     39 231337  8.66 ((383866 865862, 398721 867~
##  3   6121        3 Caith~ w6121     11  83190  3.04 ((311487 968650, 320989 968~
##  4   5601        4 Berwi~ w5601      9  51710  2.53 ((377180 672603, 386871.7 6~
##  5   6125        5 Ross-~ w6125     15 129271  4.26 ((278680.1 882371.8, 294960~
##  6   6554        6 Okney  w6554      8  53199  2.4  ((328040 1011192, 321498 10~
##  7   6019        7 Moray  w6019     26 245513  8.11 ((348968 868724, 352324 867~
##  8   6655        8 Shetl~ w6655      7  62603  2.3  ((450593 1203008, 454570 12~
##  9   6123        9 Locha~ w6123      6  59183  1.98 ((192646 807178, 216426 805~
## 10   6017       10 Gordon w6017     20 165554  6.63 ((397156 840640, 399497 838~
## # ... with 46 more rows
…
